C:\Users\canab\HippoWorkSpace\ProjectManagement\src\main\java\com\hippotech\App.java
C:\Users\canab\HippoWorkSpace\ProjectManagement\src\main\java\com\hippotech\ChildPane.java
C:\Users\canab\HippoWorkSpace\ProjectManagement\src\main\java\module-info.java
